Narrated: Foundations Case Study
…
#load log-data file from data folder
time_spent <- read_csv("module_1/data/log-data.csv")

Rows: 716 Columns: 6
── Column specification ────────────────────────────────────────────────────────
Delimiter: ","
chr (4): course_id, gender, enrollment_reason, enrollment_status
dbl (2): student_id, time_spent

ℹ Use `spec()` to retrieve the full column specification for this data.
ℹ Specify the column types or set `show_col_types = FALSE` to quiet this message.

time_spent

# A tibble: 716 × 6
   student_id course_id    gender enrollment_reason enrollment_status time_spent
        <dbl> <chr>        <chr>  <chr>             <chr>                  <dbl>
 1      60186 AnPhA-S116-… M      Course Unavailab… Approved/Enrolled      2087.
 2      66693 AnPhA-S116-… M      Course Unavailab… Approved/Enrolled      2309.
 3      66811 AnPhA-S116-… F      Course Unavailab… Approved/Enrolled      5299.
 4      66862 AnPhA-S116-… F      Course Unavailab… Approved/Enrolled      1747.
 5      67508 AnPhA-S116-… F      Scheduling Confl… Approved/Enrolled      2668.
 6      70532 AnPhA-S116-… F      Learning Prefere… Approved/Enrolled      2938.
 7      77010 AnPhA-S116-… F      Learning Prefere… Approved/Enrolled      1533.
 8      85249 AnPhA-S116-… F      Course Unavailab… Approved/Enrolled      1210.
 9      85411 AnPhA-S116-… F      Scheduling Confl… Approved/Enrolled       473.
10      85583 AnPhA-S116-… F      Scheduling Confl… Approved/Enrolled      5532.
# ℹ 706 more rows
…
#load survey data from data folder
#(add code below)
survey <- read_csv("module_1/data/survey.csv",show_col_types = FALSE)

Inspect data

There are several ways you can look at data object in R and posit cloud.

Typing object name

Type the name of your object and run the code:

time_spent

# A tibble: 716 × 6
   student_id course_id    gender enrollment_reason enrollment_status time_spent
        <dbl> <chr>        <chr>  <chr>             <chr>                  <dbl>
 1      60186 AnPhA-S116-… M      Course Unavailab… Approved/Enrolled      2087.
 2      66693 AnPhA-S116-… M      Course Unavailab… Approved/Enrolled      2309.
 3      66811 AnPhA-S116-… F      Course Unavailab… Approved/Enrolled      5299.
 4      66862 AnPhA-S116-… F      Course Unavailab… Approved/Enrolled      1747.
 5      67508 AnPhA-S116-… F      Scheduling Confl… Approved/Enrolled      2668.
 6      70532 AnPhA-S116-… F      Learning Prefere… Approved/Enrolled      2938.
 7      77010 AnPhA-S116-… F      Learning Prefere… Approved/Enrolled      1533.
 8      85249 AnPhA-S116-… F      Course Unavailab… Approved/Enrolled      1210.
 9      85411 AnPhA-S116-… F      Scheduling Confl… Approved/Enrolled       473.
10      85583 AnPhA-S116-… F      Scheduling Confl… Approved/Enrolled      5532.
# ℹ 706 more rows
…
Using sample() function

sample(survey)

# A tibble: 662 × 26
     q10    q7    q3 date.y                 q1 semester post_percomp percomp
   <dbl> <dbl> <dbl> <dttm>              <dbl> <chr>           <dbl>   <dbl>
 1     4     4     4 NA                      4 S216             NA       4  
 2     4     4     2 NA                      4 S116             NA       3  
 3     4     3     3 NA                      5 S216             NA       3  
 4     4     3     2 NA                      4 S216             NA       2.5
 5     3     4     3 NA                      4 S116             NA       3.5
 6     4     4     3 NA                      4 S216             NA       3.5
 7     4     2     4 NA                      4 S216             NA       3  
 8     4     3     3 2016-01-02 00:41:00     4 S116              3.5     3  
 9     2     3     3 2015-10-13 14:11:00     5 S116              3       3  
10     4     4     4 NA                      5 S216             NA       4  
# ℹ 652 more rows
# ℹ 18 more variables: course_ID <chr>, q9 <dbl>, date.x <dttm>, q8 <dbl>,
#   section <chr>, tv <dbl>, subject <chr>, q4 <dbl>, val <dbl>, q2 <dbl>,
#   q5 <dbl>, q6 <dbl>, student_ID <chr>, post_uv <dbl>, int <dbl>,
#   date <dttm>, post_int <dbl>, post_tv <dbl>
…
Use separate() function from tidyr

We will separate course_id variable in the time-spent.

The c() function in R is used used to combine or concatenate its argument. You can use it to get the output by giving parameters inside the function.

For example we want to separate course_id variables from

#separate variable to individual subject, semester and section
time_spent %>%  
  separate(course_id,
           c("subject", "semester", "section"))

# A tibble: 716 × 8
   student_id subject semester section gender enrollment_reason                 
        <dbl> <chr>   <chr>    <chr>   <chr>  <chr>                             
 1      60186 AnPhA   S116     01      M      Course Unavailable at Local School
 2      66693 AnPhA   S116     01      M      Course Unavailable at Local School
 3      66811 AnPhA   S116     01      F      Course Unavailable at Local School
 4      66862 AnPhA   S116     01      F      Course Unavailable at Local School
 5      67508 AnPhA   S116     01      F      Scheduling Conflict               
 6      70532 AnPhA   S116     01      F      Learning Preference of the Student
 7      77010 AnPhA   S116     01      F      Learning Preference of the Student
 8      85249 AnPhA   S116     01      F      Course Unavailable at Local School
 9      85411 AnPhA   S116     01      F      Scheduling Conflict               
10      85583 AnPhA   S116     01      F      Scheduling Conflict               
# ℹ 706 more rows
# ℹ 2 more variables: enrollment_status <chr>, time_spent <dbl>

#inspect
time_spent

# A tibble: 716 × 6
   student_id course_id    gender enrollment_reason enrollment_status time_spent
        <dbl> <chr>        <chr>  <chr>             <chr>                  <dbl>
 1      60186 AnPhA-S116-… M      Course Unavailab… Approved/Enrolled      2087.
 2      66693 AnPhA-S116-… M      Course Unavailab… Approved/Enrolled      2309.
 3      66811 AnPhA-S116-… F      Course Unavailab… Approved/Enrolled      5299.
 4      66862 AnPhA-S116-… F      Course Unavailab… Approved/Enrolled      1747.
 5      67508 AnPhA-S116-… F      Scheduling Confl… Approved/Enrolled      2668.
 6      70532 AnPhA-S116-… F      Learning Prefere… Approved/Enrolled      2938.
 7      77010 AnPhA-S116-… F      Learning Prefere… Approved/Enrolled      1533.
 8      85249 AnPhA-S116-… F      Course Unavailab… Approved/Enrolled      1210.
 9      85411 AnPhA-S116-… F      Scheduling Confl… Approved/Enrolled       473.
10      85583 AnPhA-S116-… F      Scheduling Confl… Approved/Enrolled      5532.
# ℹ 706 more rows

Make sure to save it to the time_spent object.

Saving an object is accomplished by using an assignment operator, which looks kind of like an arrow (<-).

#separate variable to individual subject, semester and section and save as same object name
time_spent <- time_spent %>%  
  separate(course_id,
           c("subject", "semester", "section"))

#inspect
time_spent

# A tibble: 716 × 8
   student_id subject semester section gender enrollment_reason                 
        <dbl> <chr>   <chr>    <chr>   <chr>  <chr>                             
 1      60186 AnPhA   S116     01      M      Course Unavailable at Local School
 2      66693 AnPhA   S116     01      M      Course Unavailable at Local School
 3      66811 AnPhA   S116     01      F      Course Unavailable at Local School
 4      66862 AnPhA   S116     01      F      Course Unavailable at Local School
 5      67508 AnPhA   S116     01      F      Scheduling Conflict               
 6      70532 AnPhA   S116     01      F      Learning Preference of the Student
 7      77010 AnPhA   S116     01      F      Learning Preference of the Student
 8      85249 AnPhA   S116     01      F      Course Unavailable at Local School
 9      85411 AnPhA   S116     01      F      Scheduling Conflict               
10      85583 AnPhA   S116     01      F      Scheduling Conflict               
# ℹ 706 more rows
# ℹ 2 more variables: enrollment_status <chr>, time_spent <dbl>
…
As you can see from the dataset, time_spent variable is not set as hour.

Let’s change that.

In pandas, you can easily create new variables or modify existing ones in a DataFrame directly using column assignments.

#mutate minutes to hours on time spent and save as new variable.
time_spent <- time_spent %>% 
  mutate(time_spent_hours = time_spent / 60)

#inspect 
time_spent

# A tibble: 716 × 9
   student_id subject semester section gender enrollment_reason                 
        <dbl> <chr>   <chr>    <chr>   <chr>  <chr>                             
 1      60186 AnPhA   S116     01      M      Course Unavailable at Local School
 2      66693 AnPhA   S116     01      M      Course Unavailable at Local School
 3      66811 AnPhA   S116     01      F      Course Unavailable at Local School
 4      66862 AnPhA   S116     01      F      Course Unavailable at Local School
 5      67508 AnPhA   S116     01      F      Scheduling Conflict               
 6      70532 AnPhA   S116     01      F      Learning Preference of the Student
 7      77010 AnPhA   S116     01      F      Learning Preference of the Student
 8      85249 AnPhA   S116     01      F      Course Unavailable at Local School
 9      85411 AnPhA   S116     01      F      Scheduling Conflict               
10      85583 AnPhA   S116     01      F      Scheduling Conflict               
# ℹ 706 more rows
# ℹ 3 more variables: enrollment_status <chr>, time_spent <dbl>,
#   time_spent_hours <dbl>
…
First, use the pipe operator to separate course_id variable (like we just did in time_spent).

Second, press the green arrow head to run the code.

#separate the course_id variable and save to 'gradebook' object
#YOUR CODE HERE
gradebook <- gradebook %>% separate(course_id,
           c("subject", "semester", "section"))

#inspect
#YOUR CODE HERE
gradebook

# A tibble: 717 × 6
   student_id subject semester section total_points_possible total_points_earned
        <dbl> <chr>   <chr>    <chr>                   <dbl>               <dbl>
 1      43146 FrScA   S216     02                       1217               1150 
 2      44638 OcnA    S116     01                       1676               1384.
 3      47448 FrScA   S216     01                       1232               1116 
 4      47979 OcnA    S216     01                       1833               1493.
 5      48797 PhysA   S116     01                       2225               1995.
 6      51943 FrScA   S216     03                       1222                 70 
 7      52326 AnPhA   S216     01                       1775               1519.
 8      52446 PhysA   S116     01                       2225               2198 
 9      53447 FrScA   S116     01                       1212               1173 
10      53475 FrScA   S116     02                       1212                  0 
# ℹ 707 more rows
…
First, take total_points_earned divide by total_points_possible and multiple by 100. Save this as proportion_earned.

Second, press the green arrow head to run the code.

# Mutate to a proportion_earned, take 'total points earned' divide by 'total points possible.' Save as a new variable proportion_earned.
gradebook <- gradebook %>%
  mutate(proportion_earned = (total_points_earned /total_points_possible) *100)

#YOUR CODE HERE

#inspect data
gradebook

# A tibble: 717 × 7
   student_id subject semester section total_points_possible total_points_earned
        <dbl> <chr>   <chr>    <chr>                   <dbl>               <dbl>
 1      43146 FrScA   S216     02                       1217               1150 
 2      44638 OcnA    S116     01                       1676               1384.
 3      47448 FrScA   S216     01                       1232               1116 
 4      47979 OcnA    S216     01                       1833               1493.
 5      48797 PhysA   S116     01                       2225               1995.
 6      51943 FrScA   S216     03                       1222                 70 
 7      52326 AnPhA   S216     01                       1775               1519.
 8      52446 PhysA   S116     01                       2225               2198 
 9      53447 FrScA   S116     01                       1212               1173 
10      53475 FrScA   S116     02                       1212                  0 
# ℹ 707 more rows
# ℹ 1 more variable: proportion_earned <dbl>

3. Survey

Let’s process our data. First though, take a quick look again by typing survey into the console or using a preferred viewing method to take a look at the data.

❓ Does it appear to be the correct file? What do the variables seem to be about? What wrangling steps do we need to take? Taking a quick peak at the data helps us to begin to formulate answers to these and is an important step in any data analysis, especially as we prepare for what we are going to do.

#inspect data to view the column names
survey

# A tibble: 662 × 26
   student_ID course_ID subject semester section   int   val percomp    tv    q1
   <chr>      <chr>     <chr>   <chr>    <chr>   <dbl> <dbl>   <dbl> <dbl> <dbl>
 1 43146      FrScA-S2… FrScA   S216     02        4.2  3.67     4    3.86     4
 2 44638      OcnA-S11… OcnA    S116     01        4    3        3    3.57     4
 3 47448      FrScA-S2… FrScA   S216     01        4.2  3        3    3.71     5
 4 47979      OcnA-S21… OcnA    S216     01        4    3.67     2.5  3.86     4
 5 48797      PhysA-S1… PhysA   S116     01        3.8  3.67     3.5  3.71     4
 6 51943      FrScA-S2… FrScA   S216     03        3.8  3.67     3.5  3.71     4
 7 52326      AnPhA-S2… AnPhA   S216     01        3.6  4        3    4        4
 8 52446      PhysA-S1… PhysA   S116     01        4.2  3.67     3    4        4
 9 53447      FrScA-S1… FrScA   S116     01        3.8  2        3    3        5
10 53475      FrScA-S2… FrScA   S216     01        4.8  3.33     4    4.14     5
# ℹ 652 more rows
# ℹ 16 more variables: q2 <dbl>, q3 <dbl>, q4 <dbl>, q5 <dbl>, q6 <dbl>,
#   q7 <dbl>, q8 <dbl>, q9 <dbl>, q10 <dbl>, date.x <dttm>, post_int <dbl>,
#   post_uv <dbl>, post_tv <dbl>, post_percomp <dbl>, date.y <dttm>,
#   date <dttm>
…
# load janitor library to clean variable names that do not match
#YOUR CODE HERE
library(janitor)

#clean columns of the survey data and save to survey object
#(add code below - some code is given to you)

survey <- clean_names(survey)

#inspect data to check for consistency with other data
#(add code below)

survey

# A tibble: 662 × 26
   student_id course_id subject semester section   int   val percomp    tv    q1
   <chr>      <chr>     <chr>   <chr>    <chr>   <dbl> <dbl>   <dbl> <dbl> <dbl>
 1 43146      FrScA-S2… FrScA   S216     02        4.2  3.67     4    3.86     4
 2 44638      OcnA-S11… OcnA    S116     01        4    3        3    3.57     4
 3 47448      FrScA-S2… FrScA   S216     01        4.2  3        3    3.71     5
 4 47979      OcnA-S21… OcnA    S216     01        4    3.67     2.5  3.86     4
 5 48797      PhysA-S1… PhysA   S116     01        3.8  3.67     3.5  3.71     4
 6 51943      FrScA-S2… FrScA   S216     03        3.8  3.67     3.5  3.71     4
 7 52326      AnPhA-S2… AnPhA   S216     01        3.6  4        3    4        4
 8 52446      PhysA-S1… PhysA   S116     01        4.2  3.67     3    4        4
 9 53447      FrScA-S1… FrScA   S116     01        3.8  2        3    3        5
10 53475      FrScA-S2… FrScA   S216     01        4.8  3.33     4    4.14     5
# ℹ 652 more rows
# ℹ 16 more variables: q2 <dbl>, q3 <dbl>, q4 <dbl>, q5 <dbl>, q6 <dbl>,
#   q7 <dbl>, q8 <dbl>, q9 <dbl>, q10 <dbl>, date_x <dttm>, post_int <dbl>,
#   post_uv <dbl>, post_tv <dbl>, post_percomp <dbl>, date_y <dttm>,
#   date <dttm>
…
subject

semester

section

#use single join to join data sets by student_id, subject, semester and section.
joined_data <- full_join(gradebook, time_spent, 
                         by = c("student_id", "subject", "semester", "section"))

#inspect 
joined_data

# A tibble: 830 × 12
   student_id subject semester section total_points_possible total_points_earned
        <dbl> <chr>   <chr>    <chr>                   <dbl>               <dbl>
 1      43146 FrScA   S216     02                       1217               1150 
 2      44638 OcnA    S116     01                       1676               1384.
 3      47448 FrScA   S216     01                       1232               1116 
 4      47979 OcnA    S216     01                       1833               1493.
 5      48797 PhysA   S116     01                       2225               1995.
 6      51943 FrScA   S216     03                       1222                 70 
 7      52326 AnPhA   S216     01                       1775               1519.
 8      52446 PhysA   S116     01                       2225               2198 
 9      53447 FrScA   S116     01                       1212               1173 
10      53475 FrScA   S116     02                       1212                  0 
# ℹ 820 more rows
# ℹ 6 more variables: proportion_earned <dbl>, gender <chr>,
#   enrollment_reason <chr>, enrollment_status <chr>, time_spent <dbl>,
#   time_spent_hours <dbl>
…
Save the new value to student_id variable.

Finally, press the green arrow head to run the code.

#mutate to change variable class from double or numeric to character
#(add code below - some code has been already added)
joined_data <- joined_data %>%
  mutate(student_id=as.character(student_id))
#survey <- subset(survey, select = -student_ID) #drop the column

#inspect
joined_data

# A tibble: 830 × 12
   student_id subject semester section total_points_possible total_points_earned
   <chr>      <chr>   <chr>    <chr>                   <dbl>               <dbl>
 1 43146      FrScA   S216     02                       1217               1150 
 2 44638      OcnA    S116     01                       1676               1384.
 3 47448      FrScA   S216     01                       1232               1116 
 4 47979      OcnA    S216     01                       1833               1493.
 5 48797      PhysA   S116     01                       2225               1995.
 6 51943      FrScA   S216     03                       1222                 70 
 7 52326      AnPhA   S216     01                       1775               1519.
 8 52446      PhysA   S116     01                       2225               2198 
 9 53447      FrScA   S116     01                       1212               1173 
10 53475      FrScA   S116     02                       1212                  0 
# ℹ 820 more rows
# ℹ 6 more variables: proportion_earned <dbl>, gender <chr>,
#   enrollment_reason <chr>, enrollment_status <chr>, time_spent <dbl>,
#   time_spent_hours <dbl>
…
